{
  "token": "dd5f3089-40c3-403d-af14-d0c228b05cb4",
  "users": [
  {
    "id": 1,
    "fullName": "John Doe",
    "username": "johndoe",
    "password": "admin",
    "avatar": "@/assets/images/avatars/13-small.png",
    "email": "admin@demo.com",
    "role": "admin",
    "ability": [
      {
        "action": "manage",
        "subject": "all"
      }
    ]
  },
  {
    "id": 2,
    "fullName": "Jane Doe",
    "username": "janedoe",
    "password": "admin",
    "avatar": "@/assets/images/avatars/1-small.png",
    "email": "client@demo.com",
    "role": "client",
    "ability": [
      {
        "action": "read",
        "subject": "ACL"
      },
      {
        "action": "read",
        "subject": "Auth"
      }
    ]
  }
],
  "posts": [
    {
        "id": 1,
        "title": "AI",
        "message": "Hello Doctor"
    },
    {
      "id": 2,
      "title": "Shri",
      "message": "Hello there!"
    },
    {
      "id": 3,
      "title": "AI",
      "message": "Hope you are well. Today’s discussion shall be on treatment options to manage ..."
    },
    {
      "id": 4,
      "title": "32123",
      "message": "Hope you are well. Today’s discussion shall be on treatment options to manage ..."
    },
    {
      "id": 5,
      "title": "A23123Idasdadas",
      "message": "Hope you are well. Today’s discussion shall be on treatment options to manage ..."
    }
  ]
}